HW13
…
## Loading required package: quantmod

## Warning: package 'quantmod' was built under R version 3.5.3

## Loading required package: TTR

## Warning: package 'TTR' was built under R version 3.5.3

## Version 0.4-0 included new data defaults. See ?getSymbols.

bike_orderlines_tbl <- read_rds("D:/hw0527/HW0527/data_wrangled_student/bike_orderlines.rds")

bike_orderlines_tbl

## # A tibble: 15,644 x 13
##    order_date          order_id order_line quantity price total_price model
##    <dttm>                 <dbl>      <dbl>    <dbl> <dbl>       <dbl> <chr>
##  1 2011-01-07 00:00:00        1          1        1  6070        6070 Jeky~
##  2 2011-01-07 00:00:00        1          2        1  5970        5970 Trig~
##  3 2011-01-10 00:00:00        2          1        1  2770        2770 Beas~
##  4 2011-01-10 00:00:00        2          2        1  5970        5970 Trig~
##  5 2011-01-10 00:00:00        3          1        1 10660       10660 Supe~
##  6 2011-01-10 00:00:00        3          2        1  3200        3200 Jeky~
##  7 2011-01-10 00:00:00        3          3        1 12790       12790 Supe~
##  8 2011-01-10 00:00:00        3          4        1  5330        5330 Supe~
##  9 2011-01-10 00:00:00        3          5        1  1570        1570 Syna~
## 10 2011-01-11 00:00:00        4          1        1  4800        4800 Syna~
## # ... with 15,634 more rows, and 6 more variables: category_1 <chr>,
## #   category_2 <chr>, frame_material <chr>, bikeshop_name <chr>,
## #   city <chr>, state <chr>
…
# 3.4 Time-Based Reordering: fct_reorder2() ----

sales_by_cat_2_q_tbl <- bike_orderlines_tbl %>%
    
    mutate(order_date = order_date %>% floor_date("quarter") %>% ymd()) %>%
    
    group_by(category_2, order_date) %>%
    summarise(sales = sum(total_price)) %>%
    ungroup()

sales_by_cat_2_q_tbl

## # A tibble: 180 x 3
##    category_2         order_date   sales
##    <chr>              <date>       <dbl>
##  1 Cross Country Race 2011-01-01  610060
##  2 Cross Country Race 2011-04-01 1083310
##  3 Cross Country Race 2011-07-01  609770
##  4 Cross Country Race 2011-10-01  614110
##  5 Cross Country Race 2012-01-01  731330
##  6 Cross Country Race 2012-04-01 1097010
##  7 Cross Country Race 2012-07-01 1000220
##  8 Cross Country Race 2012-10-01  532240
##  9 Cross Country Race 2013-01-01 1017470
## 10 Cross Country Race 2013-04-01 1503950
## # ... with 170 more rows
…
